{
  "sgdclassifier": {
    "loss": ["log", "hinge"],
    "penalty": ["l1", "l2", "elasticnet"],
    "alpha": [0.001, 0.0001, 1e-05, 1e-06]
  },
  "linearsvc": {
    "C": [0.001, 0.01, 0.1, 1.0, 10],
    "loss": ["hinge", "squared_hinge"]
  },
  "logisticregression": {
    "C": [0.001, 0.01, 0.1, 1.0, 10],
    "penalty": ["l1", "l2"]
  },
  "multinomialnb": {
    "alpha": [1.0, 0.1, 0.001, 10]
  },
  "randomforestclassifier": {
    "n_estimators": [10, 30, 60],
    "max_depth": [1, 5, 10, 20 , 30],
    "min_samples_leaf": [1, 2, 4, 6, 8, 10]
  },
  "wordembeddinglstmsequential": {
    "add_dropout": [true],
    "dropout": [0.2, 0.4, 0.5]
  },
  "wordembeddinglstmsequentialsiamese": {
    "add_dropout": [true],
    "dropout": [0.2, 0.4, 0.5]
  },
  "wordembeddingscnnsequential": {
    "num_filter": [32, 64, 128],
    "dense_dim": [32, 64, 128, 256],
    "padding_mode": ["average", "max"]
  }
}