,mean_fit_time,mean_score_time,mean_test_Accuracy,mean_test_F1-score,mean_train_Accuracy,mean_train_F1-score,param_sgdclassifier__alpha,param_sgdclassifier__loss,param_sgdclassifier__penalty,params,rank_test_Accuracy,rank_test_F1-score,split0_test_Accuracy,split0_test_F1-score,split0_train_Accuracy,split0_train_F1-score,split1_test_Accuracy,split1_test_F1-score,split1_train_Accuracy,split1_train_F1-score,split2_test_Accuracy,split2_test_F1-score,split2_train_Accuracy,split2_train_F1-score,std_fit_time,std_score_time,std_test_Accuracy,std_test_F1-score,std_train_Accuracy,std_train_F1-score
0,14.2472655773,14.3315848509,0.685797018493,0.0616216612248,0.685143635063,0.0608055675213,0.001,log,l1,"{u'sgdclassifier__penalty': u'l1', u'sgdclassifier__alpha': 0.001, u'sgdclassifier__loss': u'log'}",9,24,0.933712121212,0.0366972477064,0.9337491635,0.036009553555,0.193308080808,0.0875203519095,0.1939418427,0.0878448854787,0.930377029723,0.0606473594549,0.92773989899,0.0585622635302,0.0277321776267,0.0893005040425,0.34824712764,0.0207599670169,0.347340782163,0.0212210543016
1,14.5641407172,14.1462098757,0.704904923442,0.136917281435,0.718410899049,0.176220205929,0.001,log,l2,"{u'sgdclassifier__penalty': u'l2', u'sgdclassifier__alpha': 0.001, u'sgdclassifier__loss': u'log'}",6,4,0.696414141414,0.133487098169,0.714062046238,0.174407582938,0.701287878788,0.136884348778,0.71555196404,0.176307129799,0.717013055885,0.140380484811,0.725618686869,0.17794590505,0.0616603250919,0.135352165212,0.00878979543878,0.00281430373608,0.00513284311767,0.00144582102649
2,14.8185712496,14.1120173136,0.701420045623,0.121835362089,0.704315594571,0.131049163674,0.001,log,elasticnet,"{u'sgdclassifier__penalty': u'elasticnet', u'sgdclassifier__alpha': 0.001, u'sgdclassifier__loss': u'log'}",7,10,0.664090909091,0.115558510638,0.670488263741,0.127453274934,0.71196969697,0.121939953811,0.714781752295,0.132226960163,0.728200207076,0.128007777688,0.727676767677,0.133467255926,0.156779143607,0.174750936751,0.0272148073535,0.00508291937845,0.0244919930963,0.00259260425952
3,14.6548319658,14.132061402,0.911404978156,0.076344354677,0.913429375554,0.0884303387548,0.001,hinge,l1,"{u'sgdclassifier__penalty': u'l1', u'sgdclassifier__alpha': 0.001, u'sgdclassifier__loss': u'hinge'}",1,23,0.89952020202,0.0909298606351,0.900112375156,0.102348802905,0.916994949495,0.0748663101604,0.919519185848,0.0876037789865,0.917699941918,0.0632365622305,0.920656565657,0.0753384343732,0.0802432906647,0.0243134614397,0.00840878582211,0.0113539235372,0.00942798256597,0.0110424152805
4,14.4939757188,14.1396272182,0.738903526124,0.145325109446,0.749656913967,0.183804028428,0.001,hinge,l2,"{u'sgdclassifier__penalty': u'l2', u'sgdclassifier__alpha': 0.001, u'sgdclassifier__loss': u'hinge'}",3,2,0.720378787879,0.140228278593,0.73445371785,0.178765277832,0.738787878788,0.144416873449,0.74830490284,0.183969215654,0.757544382434,0.151330327941,0.766212121212,0.188677591797,0.113589102125,0.116947850708,0.0151729788787,0.00457765751734,0.0130005127231,0.00404837063124
5,14.8019874096,14.1757175922,0.857886009141,0.150491385591,0.861854819752,0.172311111952,0.001,hinge,elasticnet,"{u'sgdclassifier__penalty': u'elasticnet', u'sgdclassifier__alpha': 0.001, u'sgdclassifier__loss': u'hinge'}",2,1,0.838939393939,0.145956079272,0.844391974646,0.167409809485,0.856439393939,0.147292635368,0.860781070468,0.171475804028,0.878279754539,0.158225637443,0.880391414141,0.178047722343,0.128809460634,0.0472765514651,0.0160931435917,0.00549602615005,0.0147163087341,0.00438289113009
6,14.7171959877,14.0158572992,0.705494153991,0.122454226698,0.714513601207,0.148143558589,0.0001,log,l1,"{u'sgdclassifier__penalty': u'l1', u'sgdclassifier__alpha': 0.0001, u'sgdclassifier__loss': u'log'}",5,9,0.704949494949,0.11925222373,0.71715551964,0.149318345802,0.707727272727,0.126226785445,0.714491344588,0.147038853263,0.703805651658,0.12188365651,0.711893939394,0.148073476703,0.129109073963,0.0899051041132,0.00164666424093,0.00287580559547,0.00214808879244,0.000931917436212
7,14.5314059258,14.1174637477,0.688061347318,0.132030066982,0.709484075202,0.192875755968,0.0001,log,l2,"{u'sgdclassifier__penalty': u'l2', u'sgdclassifier__alpha': 0.0001, u'sgdclassifier__loss': u'log'}",8,7,0.680050505051,0.130166140327,0.705362441445,0.191581500087,0.690555555556,0.133257886547,0.710905440725,0.193120947279,0.69357812066,0.132666190136,0.712184343434,0.193924820538,0.0607429702454,0.0904846565203,0.00579739990133,0.00133995662228,0.00296083283916,0.000972240288914
8,14.7392547131,14.0651185513,0.682682514163,0.13406398459,0.699437604442,0.180133374396,0.0001,log,elasticnet,"{u'sgdclassifier__penalty': u'elasticnet', u'sgdclassifier__alpha': 0.0001, u'sgdclassifier__loss': u'log'}",10,6,0.676868686869,0.130588395162,0.698380030051,0.179332142366,0.662121212121,0.132858068697,0.676435308527,0.173194811899,0.709058309553,0.138745608133,0.723497474747,0.187873168923,0.02328019866,0.0577067758129,0.0195979798551,0.00343760085661,0.0192275968345,0.00601913730264
9,14.6761573156,14.210258007,0.659281643785,0.122788701535,0.670594751562,0.153989564697,0.0001,hinge,l1,"{u'sgdclassifier__penalty': u'l1', u'sgdclassifier__alpha': 0.0001, u'sgdclassifier__loss': u'hinge'}",14,8,0.624065656566,0.119789511027,0.637217641637,0.148984064925,0.660707070707,0.12309098029,0.675753481736,0.155763035045,0.6930730574,0.125485681393,0.698813131313,0.157221594121,0.0912747349136,0.109477347366,0.0281901192192,0.00233524948958,0.0254094530949,0.00358916142665
10,14.5007202625,14.2028973897,0.6750730225,0.135395932991,0.695039489454,0.18823914079,0.0001,hinge,l2,"{u'sgdclassifier__penalty': u'l2', u'sgdclassifier__alpha': 0.0001, u'sgdclassifier__loss': u'hinge'}",11,5,0.677146464646,0.135856708347,0.699768936476,0.189017735334,0.663080808081,0.132509752926,0.682925289461,0.185151534817,0.684992045254,0.137821398949,0.702424242424,0.190548152219,0.137187943487,0.0980652087913,0.00906456418855,0.00219280697428,0.00863435168473,0.00227090685886
11,14.7145353953,14.1586679618,0.714989183411,0.143150971359,0.733360575423,0.196698327655,0.0001,hinge,elasticnet,"{u'sgdclassifier__penalty': u'elasticnet', u'sgdclassifier__alpha': 0.0001, u'sgdclassifier__loss': u'hinge'}",4,3,0.717373737374,0.143687834736,0.738052248134,0.198501004482,0.718560606061,0.144206404054,0.734668367025,0.197693952352,0.70903305639,0.141558635077,0.727361111111,0.193900026132,0.0502113015949,0.117913634154,0.00423934603545,0.00114566784199,0.00446152753119,0.00200594148229
12,14.8278809388,14.2140986919,0.670552782431,0.111143891223,0.697657398182,0.191684040234,1e-05,log,l1,"{u'sgdclassifier__penalty': u'l1', u'sgdclassifier__alpha': 1e-05, u'sgdclassifier__loss': u'log'}",12,12,0.66553030303,0.111491245723,0.696334549679,0.193710607483,0.67797979798,0.110987172337,0.701473503453,0.190613125193,0.66814818556,0.110953250795,0.695164141414,0.190728388027,0.0495032563629,0.0383216618078,0.00535936951253,0.000246008361378,0.00274037204987,0.00143377183002
13,14.4073851903,14.1619323889,0.654862414667,0.10925514193,0.680077098708,0.177901014132,1e-05,log,l2,"{u'sgdclassifier__penalty': u'l2', u'sgdclassifier__alpha': 1e-05, u'sgdclassifier__loss': u'log'}",17,14,0.620505050505,0.10611467999,0.648960214144,0.169097429767,0.645909090909,0.111068847471,0.669692799152,0.175751465121,0.698174196318,0.110581931835,0.721578282828,0.188854147508,0.0622359762534,0.015057652179,0.0323340890193,0.00222953519114,0.0305420064044,0.00820761413514
14,14.8290287654,14.0952156385,0.655956699972,0.112311144045,0.682775150249,0.185659106968,1e-05,log,elasticnet,"{u'sgdclassifier__penalty': u'elasticnet', u'sgdclassifier__alpha': 1e-05, u'sgdclassifier__loss': u'log'}",15,11,0.655378787879,0.10961049129,0.686485940479,0.186861409484,0.663257575758,0.115657536972,0.689213247642,0.188085499406,0.649233566504,0.111665387567,0.672626262626,0.182030412013,0.0598219033887,0.0501190092387,0.00573983111782,0.00251057901625,0.00726220770272,0.00261408611678
15,14.6477865378,14.1485044161,0.64476131954,0.108952736726,0.673578683313,0.185455894461,1e-05,hinge,l1,"{u'sgdclassifier__penalty': u'l1', u'sgdclassifier__alpha': 1e-05, u'sgdclassifier__loss': u'hinge'}",20,15,0.621186868687,0.109045554434,0.650361746992,0.180278854978,0.61601010101,0.106265428471,0.644793494867,0.177667348728,0.697088310311,0.111547292793,0.725580808081,0.198421479678,0.0376075660155,0.0680874217821,0.0370606116287,0.0021573061522,0.0368412548934,0.00922983536274
16,14.3438250224,14.1378792922,0.612597749139,0.107864319957,0.636242649573,0.163218445416,1e-05,hinge,l2,"{u'sgdclassifier__penalty': u'l2', u'sgdclassifier__alpha': 1e-05, u'sgdclassifier__loss': u'hinge'}",23,16,0.5875,0.104980549011,0.618227502873,0.158427967045,0.617878787879,0.11019640127,0.635311051907,0.164047350294,0.632414959974,0.108416023521,0.655189393939,0.167180018908,0.0917868704974,0.059201018064,0.018712804464,0.00216481143133,0.0151040006503,0.00362076561181
17,14.5561963717,14.0549050172,0.652194042037,0.111131515576,0.679315521554,0.178298126927,1e-05,hinge,elasticnet,"{u'sgdclassifier__penalty': u'elasticnet', u'sgdclassifier__alpha': 1e-05, u'sgdclassifier__loss': u'hinge'}",19,13,0.648106060606,0.109413945165,0.67879644945,0.178087945462,0.665025252525,0.115725618292,0.689124862688,0.180910875279,0.643450592187,0.10825491063,0.670025252525,0.17589556004,0.0144493248582,0.0752818526485,0.00927001815149,0.00328282130099,0.00780601707984,0.00205288072732
18,14.6208700339,14.0346600215,0.655350634265,0.0972936598973,0.683149661778,0.17891470989,1e-06,log,l1,"{u'sgdclassifier__penalty': u'l1', u'sgdclassifier__alpha': 1e-06, u'sgdclassifier__loss': u'log'}",16,22,0.635833333333,0.0979545881028,0.667887220798,0.1755837643,0.665505050505,0.0992792057664,0.691751158474,0.180579330715,0.664713755398,0.0946471189908,0.689810606061,0.180581034655,0.0131049938731,0.163221337599,0.0138046832717,0.00194793191246,0.0108212141773,0.00235533431718
19,14.3062645594,14.1479563713,0.585829847053,0.100604853983,0.604571504831,0.145450920933,1e-06,log,l2,"{u'sgdclassifier__penalty': u'l2', u'sgdclassifier__alpha': 1e-06, u'sgdclassifier__loss': u'log'}",24,18,0.612424242424,0.104237189214,0.635980252276,0.149507345566,0.536868686869,0.0978848991638,0.55356759555,0.139543939062,0.608197176696,0.099692450531,0.624166666667,0.147301478171,0.0603699918448,0.119334547507,0.0346639688849,0.00267236804047,0.0363862544803,0.00427284361674
20,14.7436610063,14.0936733087,0.640973408867,0.097854059752,0.663675576807,0.158693467261,1e-06,log,elasticnet,"{u'sgdclassifier__penalty': u'elasticnet', u'sgdclassifier__alpha': 1e-06, u'sgdclassifier__loss': u'log'}",21,21,0.625909090909,0.0973677796734,0.649604161669,0.155554879348,0.646515151515,0.0987638423899,0.667445296026,0.159550705214,0.650496224652,0.097430546498,0.673977272727,0.160974817222,0.0304983374907,0.139725422166,0.0107754234202,0.000643827662641,0.010301139837,0.00229420637272
21,14.7122286161,14.1888333162,0.652269800251,0.0989596641494,0.679959274103,0.177224089442,1e-06,hinge,l1,"{u'sgdclassifier__penalty': u'l1', u'sgdclassifier__alpha': 1e-06, u'sgdclassifier__loss': u'hinge'}",18,20,0.637373737374,0.0958317592243,0.669212995114,0.174918115394,0.629898989899,0.0969808995687,0.654313817094,0.170614965162,0.689537614586,0.104066462615,0.716351010101,0.186139187769,0.0469681593964,0.0867257334036,0.0265280890667,0.00364135347166,0.0264419516822,0.0065441326964
22,14.3846546014,14.1506760915,0.661428126499,0.102961937238,0.684412521066,0.161669733747,1e-06,hinge,l2,"{u'sgdclassifier__penalty': u'l2', u'sgdclassifier__alpha': 1e-06, u'sgdclassifier__loss': u'hinge'}",13,17,0.695151515152,0.103786191537,0.720072223134,0.167542805647,0.674292929293,0.10715769071,0.694933016831,0.16290752867,0.614838758555,0.0979418026969,0.638232323232,0.154558866922,0.10561782914,0.123354074857,0.0340260376912,0.00380723971701,0.0342291584018,0.00537244627133
23,14.6130761305,14.1608353456,0.630384094142,0.100154524306,0.65208055467,0.157804655517,1e-06,hinge,elasticnet,"{u'sgdclassifier__penalty': u'elasticnet', u'sgdclassifier__alpha': 1e-06, u'sgdclassifier__loss': u'hinge'}",22,19,0.599873737374,0.0977165309493,0.626485182894,0.153009219493,0.693383838384,0.104440182918,0.713304460915,0.168095552136,0.597893886209,0.0983068123903,0.616452020202,0.152309194921,0.0468475573096,0.169084872483,0.0445551595577,0.00304000371871,0.0434851783967,0.00728237248537
