,mean_fit_time,mean_score_time,mean_test_Accuracy,mean_test_F1-score,mean_train_Accuracy,mean_train_F1-score,param_sgdclassifier,params,rank_test_Accuracy,rank_test_F1-score,split0_test_Accuracy,split0_test_F1-score,split0_train_Accuracy,split0_train_F1-score,split1_test_Accuracy,split1_test_F1-score,split1_train_Accuracy,split1_train_F1-score,split2_test_Accuracy,split2_test_F1-score,split2_train_Accuracy,split2_train_F1-score,std_fit_time,std_score_time,std_test_Accuracy,std_test_F1-score,std_train_Accuracy,std_train_F1-score
0,0.222333192825,0.246666749318,0.552533333333,0.49948469255,0.551533333333,0.498654454395,"SGDClassifier(alpha=0.0001, average=False, class_weight='balanced',
       epsilon=0.1, eta0=0.0, fit_intercept=True, l1_ratio=0.15,
       learning_rate='optimal', loss='hinge', max_iter=None, n_iter=None,
       n_jobs=1, penalty='l2', power_t=0.5, random_state=None,
       shuffle=True, tol=None, verbose=0, warm_start=False)","{u'sgdclassifier': SGDClassifier(alpha=0.0001, average=False, class_weight='balanced',
       epsilon=0.1, eta0=0.0, fit_intercept=True, l1_ratio=0.15,
       learning_rate='optimal', loss='hinge', max_iter=None, n_iter=None,
       n_jobs=1, penalty='l2', power_t=0.5, random_state=None,
       shuffle=True, tol=None, verbose=0, warm_start=False)}",1,3,0.552,0.428206764518,0.551275,0.426824205652,0.55595,0.51646975554,0.553825,0.513506882922,0.54965,0.553777557592,0.5495,0.55563227461,0.0208059942892,0.0138883953332,0.00259946575708,0.0526521622974,0.00177509780638,0.0536241589339
1,0.235333442688,0.260333299637,0.549433333333,0.5547822595,0.549591666667,0.554942108957,"LogisticRegression(C=1.0, class_weight='balanced', dual=False,
          fit_intercept=True, intercept_scaling=1, max_iter=100,
          multi_class='ovr', n_jobs=1, penalty='l2', random_state=None,
          solver='liblinear', tol=0.0001, verbose=0, warm_start=False)","{u'sgdclassifier': LogisticRegression(C=1.0, class_weight='balanced', dual=False,
          fit_intercept=True, intercept_scaling=1, max_iter=100,
          multi_class='ovr', n_jobs=1, penalty='l2', random_state=None,
          solver='liblinear', tol=0.0001, verbose=0, warm_start=False)}",3,1,0.55095,0.5583911098,0.5489,0.553432658516,0.548,0.55269668481,0.550275,0.55592584364,0.54935,0.553258983891,0.5496,0.555467824714,0.0265372088575,0.00731814612294,0.00120577314985,0.00256214694203,0.000561372326437,0.00108359765234
2,0.38533337911,0.265666643778,0.549483333333,0.554765855972,0.549558333333,0.554865165968,"LinearSVC(C=1.0, class_weight='balanced', dual=True, fit_intercept=True,
     intercept_scaling=1, loss='squared_hinge', max_iter=1000,
     multi_class='ovr', penalty='l2', random_state=None, tol=0.0001,
     verbose=0)","{u'sgdclassifier': LinearSVC(C=1.0, class_weight='balanced', dual=True, fit_intercept=True,
     intercept_scaling=1, loss='squared_hinge', max_iter=1000,
     multi_class='ovr', penalty='l2', random_state=None, tol=0.0001,
     verbose=0)}",2,2,0.5509,0.558276777811,0.54885,0.553338943617,0.5482,0.552806097199,0.5502,0.555775023456,0.54935,0.553214692906,0.549625,0.555481530831,0.0146136048821,0.0126578511633,0.00110629511835,0.00248819435613,0.000553147559176,0.00108583316064
