,mean_fit_time,mean_score_time,mean_test_Accuracy,mean_train_Accuracy,param_linearsvc__C,param_linearsvc__loss,params,rank_test_Accuracy,split0_test_Accuracy,split0_train_Accuracy,split1_test_Accuracy,split1_train_Accuracy,split2_test_Accuracy,split2_train_Accuracy,std_fit_time,std_score_time,std_test_Accuracy,std_train_Accuracy
0,0.112333297729,0.0416666666667,0.477071290944,0.477071386941,0.001,hinge,"{u'linearsvc__C': 0.001, u'linearsvc__loss': u'hinge'}",9,0.476905311778,0.477154424523,0.476905311778,0.477154424523,0.477404403244,0.476905311778,0.0265622255401,0.010274065109,0.000235137622988,0.00011743287397
1,0.136666695277,0.0536666711171,0.477071290944,0.477071386941,0.001,squared_hinge,"{u'linearsvc__C': 0.001, u'linearsvc__loss': u'squared_hinge'}",9,0.476905311778,0.477154424523,0.476905311778,0.477154424523,0.477404403244,0.476905311778,0.0207418690472,0.0103385841409,0.000235137622988,0.00011743287397
2,0.118999958038,0.0436666806539,0.701348747592,0.830830184361,0.01,hinge,"{u'linearsvc__C': 0.01, u'linearsvc__loss': u'hinge'}",7,0.721709006928,0.834008097166,0.698614318707,0.830537883169,0.683661645423,0.827944572748,0.00778882660045,0.00410960799458,0.0156483802282,0.00248403731603
3,0.119333346685,0.0596665541331,0.64894026975,0.733333043926,0.01,squared_hinge,"{u'linearsvc__C': 0.01, u'linearsvc__loss': u'squared_hinge'}",8,0.655889145497,0.727009832273,0.645496535797,0.739155581261,0.645422943221,0.733833718245,0.00449681044326,0.0101434147204,0.00491794984119,0.00497110388136
4,0.127666552862,0.0353333950043,0.71098265896,0.84604687683,0.1,hinge,"{u'linearsvc__C': 0.1, u'linearsvc__loss': u'hinge'}",6,0.736720554273,0.841526894158,0.706697459584,0.844997108155,0.689455388181,0.851616628176,0.0332899613754,0.00124712873142,0.0195272555795,0.00418546642852
5,0.092333316803,0.0350000858307,0.743737957611,0.901539913026,0.1,squared_hinge,"{u'linearsvc__C': 0.1, u'linearsvc__loss': u'squared_hinge'}",3,0.763279445727,0.897050318103,0.729792147806,0.903412377097,0.738122827346,0.90415704388,0.00713364027814,0.00244950687356,0.0142417047503,0.00318914608086
6,0.224666595459,0.0510001182556,0.752986512524,0.944315843793,1.0,hinge,"{u'linearsvc__C': 1.0, u'linearsvc__loss': u'hinge'}",2,0.767898383372,0.94042799306,0.74480369515,0.947946790052,0.746234067207,0.944572748268,0.0459661660274,0.005715451149,0.0105695626479,0.00307490671787
7,0.153666734695,0.0416665871938,0.759537572254,0.985936706217,1.0,squared_hinge,"{u'linearsvc__C': 1.0, u'linearsvc__loss': u'squared_hinge'}",1,0.758660508083,0.986119144014,0.75519630485,0.98958935801,0.764774044032,0.982101616628,0.0214527804601,0.00124721369365,0.00395793539954,0.00305957844743
8,0.436333258947,0.0346666971842,0.741425818882,0.995761966651,10,hinge,"{u'linearsvc__C': 10, u'linearsvc__loss': u'hinge'}",5,0.750577367206,0.995951417004,0.740184757506,0.997108155003,0.73348783314,0.994226327945,0.0102088710724,0.00368181515329,0.00702983163587,0.00118410314186
9,0.369000037511,0.0463333129883,0.742967244701,0.998073772992,10,squared_hinge,"{u'linearsvc__C': 10, u'linearsvc__loss': u'squared_hinge'}",4,0.752886836028,0.998843262001,0.743648960739,0.998264893002,0.732329084589,0.997113163972,0.00326604160989,0.00449697538903,0.00840408841297,0.000719122122705
